unit_tests/reference/test_sim_select/test_sim_select.vcd
$date 2021-01-31 09:16:37.713024 $end
$timescale 1 ns $end
$scope module top $end
$var wire 10 ! a $end
$var wire 5 " b $end
$var wire 1 # c $end
$var wire 4 $ selectw $end
$var wire 4 % select_one_hot $end
$var wire 2 & u_output_port $end
$var wire 4 ' u1_output_port $end
$var wire 10 ( select1 $end
$var wire 1 ) u3_output_port $end
$var wire 1 * u4_output_port $end
$var wire 1 + u5_output_port $end
$var wire 10 , select2 $end
$var wire 1 - u7_output_port $end
$var wire 1 . u8_output_port $end
$var wire 1 / u9_output_port $end
$var wire 10 0 select3 $end
$upscope $end
$enddefinitions $end
#0
$dumpvars
b11 !
b10 "
1#
b0 $
b1 %
b11 &
b0 '
b11 (
0)
0*
0+
bX ,
1-
0.
0/
b11 0
$end
#10
b1 $
b10 %
b1 '
1.
1)
0-
b10 0
b11 ,
b10 (
#20
b10 $
b100 %
b10 '
0.
0)
1/
1*
b1 0
b10 ,
b1 (
#30
b11 $
b1000 %
b11 '
1)
0/
bX 0
b11 ,
bX (
#40
b100 $
b0 %
b0 '
0)
1+
0*
b1 ,
b11 (
#50
b101 $
b1 '
1)
b11 ,
b10 (
#60
b110 $
b10 '
0)
1*
b10 ,
b1 (
#70
b111 $
b11 '
1)
b11 ,
bX (
#80
b1000 $
b0 '
0)
0+
0*
bX ,
b11 (
#90
b1001 $
b1 '
1)
b11 ,
b10 (
#100
b1010 $
b10 '
0)
1*
b10 ,
b1 (
#110
b1011 $
b11 '
1)
b11 ,
bX (
#120
b1100 $
b0 '
0)
1+
0*
b1 ,
b11 (
#130
b1101 $
b1 '
1)
b11 ,
b10 (
#140
b1110 $
b10 '
0)
1*
b10 ,
b1 (
