unit_tests/reference/test_fsm_sim/test_fsm_sim.vcd
$date 2021-04-13 14:14:02.606949 $end
$timescale 1 ns $end
$scope module UseFSM_tb $end
$var wire 1 ! clk $end
$var wire 1 # rst $end
$var wire 1 % data_in_valid $end
$var wire 1 & data_last $end
$var wire 8 ' data_in $end
$var string 3 ( u_output_port $end
$var string 3 * u1_output_port $end
$var wire 1 , u2_output_port $end
$var wire 1 . u3_output_port $end
$var wire 1 / u4_output_port $end
$var wire 1 1 u5_output_port $end
$var wire 1 3 u6_output_port $end
$var wire 1 4 u7_output_port $end
$var wire 1 6 u8_output_port $end
$var wire 1 8 u9_output_port $end
$var wire 1 9 u10_output_port $end
$var wire 1 ; u11_output_port $end
$var wire 1 = u12_output_port $end
$var wire 1 ? u13_output_port $end
$var wire 1 A u14_output_port $end
$var wire 1 C u15_output_port $end
$var wire 1 D u16_output_port $end
$var wire 1 F u17_output_port $end
$var wire 1 H u18_output_port $end
$var wire 1 J u19_output_port $end
$var wire 1 K u20_output_port $end
$var wire 1 M u21_output_port $end
$var string 3 O my_fsm_next_state $end
$var string 3 R my_fsm_state $end
$var string 3 U u22_output_port $end
$var string 3 V u23_output_port $end
$var string 3 W u24_output_port $end
$var string 3 X u25_output_port $end
$var string 3 Y u26_output_port $end
$var string 3 Z u27_output_port $end
$var wire 1 [ u28_output_port $end
$var wire 1 \ u29_output_port $end
$var wire 1 ] u30_output_port $end
$var wire 1 ^ u31_output_port $end
$var wire 1 _ u32_output_port $end
$var wire 1 ` u33_output_port $end
$var wire 9 a u34_output_port $end
$var wire 8 b u35_output_port $end
$var wire 1 c u36_output_port $end
$var wire 1 d u37_output_port $end
$var wire 9 e u38_output_port $end
$var wire 8 f u39_output_port $end
$var wire 8 g unnamed_wire_1 $end
$var wire 8 h next_my_sum $end
$var wire 8 i data_out $end
$var wire 8 j my_sum $end
$var string 3 k u42_output_port $end
$var wire 1 l data_out_valid $end
$scope module my_fsm $end
$var wire 1 " clock_port $end
$var wire 1 $ reset_port $end
$var string 3 ) reset_value $end
$var string 3 + default_state $end
$var wire 1 - input_reset_to_idle $end
$var wire 1 0 input_idle_to_get_first_data $end
$var wire 1 2 input_get_data_to_get_wait $end
$var wire 1 5 input_get_data_to_get_data $end
$var wire 1 7 input_get_wait_to_get_wait $end
$var wire 1 : input_get_wait_to_get_data $end
$var wire 1 < input_get_data_to_send_data $end
$var wire 1 > input_get_wait_to_send_data $end
$var wire 1 @ input_idle_to_send_data $end
$var wire 1 B input_send_data_to_idle $end
$var wire 1 E input_send_data_to_get_first_data $end
$var wire 1 G input_send_data_to_send_data $end
$var wire 1 I input_get_first_data_to_get_wait $end
$var wire 1 L input_get_first_data_to_get_data $end
$var wire 1 N input_get_first_data_to_send_data $end
$var string 3 P next_state $end
$var string 3 Q local_next_state $end
$var string 3 S state $end
$var string 3 T local_state $end
$upscope $end
$upscope $end
$enddefinitions $end
#0
$dumpvars
1!
1"
1#
1$
x%
x&
bx '
sreset (
sreset )
sidle *
sidle +
1,
1-
x.
x/
x0
x1
x2
x3
x4
x5
x6
x7
x8
x9
x:
x;
x<
x=
x>
x?
x@
xA
xB
xC
xD
xE
xF
xG
xH
xI
xJ
xK
xL
xM
xN
sidle O
sidle P
sidle Q
s R
s S
s T
sreset U
sidle V
sget_first_data W
sget_data X
sget_wait Y
ssend_data Z
0[
0\
1]
0^
0_
0`
bX a
bX b
0c
0d
bX e
bX f
b0 g
b0 h
bX i
bX j
ssend_data k
Xl
$end
#20
0!
0"
#30
1!
1"
sreset R
sreset S
sreset T
b0 i
b0 j
0l
#40
0!
0"
#50
1!
1"
#60
0!
0"
#70
1!
1"
#80
0!
0"
#90
1!
1"
#100
0!
0"
#110
1!
1"
0#
0$
#120
0!
0"
#130
1!
1"
sidle R
sidle S
sidle T
#140
0!
0"
#150
1!
1"
#160
0!
0"
#170
1!
1"
#180
0!
0"
#190
1!
1"
#200
0!
0"
#210
1!
1"
b1001010 '
1%
0&
0F
0G
0H
0I
1J
0M
0N
1.
b1001010 a
01
02
13
b1001010 e
06
07
18
0;
0<
0=
0>
0?
0@
0A
0B
1C
1D
1E
14
15
1/
10
b1001010 f
b1001010 b
19
1:
1K
1L
sget_first_data O
sget_first_data P
sget_first_data Q
1_
0]
b1001010 g
b1001010 h
#220
0!
0"
#230
1!
1"
b1010110 '
sget_first_data R
sget_first_data S
sget_first_data T
b1001010 i
b1001010 j
b10100000 a
b10100000 e
b10100000 f
b10100000 b
sget_data O
sget_data P
sget_data Q
0_
1`
b10100000 g
b10100000 h
#240
0!
0"
#250
1!
1"
b10110100 '
sget_data R
sget_data S
sget_data T
b10100000 i
b10100000 j
b101010100 a
b101010100 e
b1010100 f
b1010100 b
b1010100 g
b1010100 h
#260
0!
0"
#270
1!
1"
b1001 '
b1010100 i
b1010100 j
b1011101 a
b1011101 e
b1011101 f
b1011101 b
b1011101 g
b1011101 h
#280
0!
0"
#290
1!
1"
b1100001 '
1&
b1011101 i
b1011101 j
1F
1G
0J
1M
1N
0.
b10111110 a
03
b10111110 e
08
1;
1<
1=
1>
1?
1@
0C
0D
0E
04
05
0/
00
b10111110 f
b10111110 b
09
0:
0K
0L
ssend_data O
ssend_data P
ssend_data Q
1d
0`
b10111110 g
b10111110 h
#300
0!
0"
#310
1!
1"
0%
ssend_data R
ssend_data S
ssend_data T
b10111110 i
b10111110 j
0M
0N
0=
0>
1l
0F
0G
16
17
b100011111 e
0?
0@
b100011111 a
1H
1I
1A
1B
11
12
0;
0<
b11111 f
b11111 b
sidle O
sidle P
sidle Q
0d
1]
b0 g
b0 h
#320
0!
0"
#330
1!
1"
sidle R
sidle S
sidle T
b0 i
b0 j
0l
b1100001 e
b1100001 a
b1100001 f
b1100001 b
#340
0!
0"
#350
1!
1"
#360
0!
0"
#370
1!
1"
#380
0!
0"
#390
1!
1"
#400
0!
0"
#410
1!
1"
#420
0!
0"
#430
1!
1"
b11001000 '
1%
1F
1G
0H
0I
1M
1N
b11001000 a
01
02
b11001000 e
06
07
1;
1<
1=
1>
1?
1@
0A
0B
b11001000 f
b11001000 b
ssend_data O
ssend_data P
ssend_data Q
1d
0]
b11001000 g
b11001000 h
#440
0!
0"
#450
1!
1"
0%
ssend_data R
ssend_data S
ssend_data T
b11001000 i
b11001000 j
0M
0N
0=
0>
1l
0F
0G
16
17
b110010000 e
0?
0@
b110010000 a
1H
1I
1A
1B
11
12
0;
0<
b10010000 f
b10010000 b
sidle O
sidle P
sidle Q
0d
1]
b0 g
b0 h
#460
0!
0"
#470
1!
1"
b1101110 '
1%
0&
sidle R
sidle S
sidle T
b0 i
b0 j
0H
0I
1J
1.
b1101110 a
01
02
13
b1101110 e
06
07
18
0l
0A
0B
1C
1D
1E
14
15
1/
10
b1101110 f
b1101110 b
19
1:
1K
1L
sget_first_data O
sget_first_data P
sget_first_data Q
1_
0]
b1101110 g
b1101110 h
#480
0!
0"
#490
1!
1"
b1011110 '
sget_first_data R
sget_first_data S
sget_first_data T
b1101110 i
b1101110 j
b11001100 a
b11001100 e
b11001100 f
b11001100 b
sget_data O
sget_data P
sget_data Q
0_
1`
b11001100 g
b11001100 h
#500
0!
0"
#510
1!
1"
b11101101 '
1&
sget_data R
sget_data S
sget_data T
b11001100 i
b11001100 j
1F
1G
0J
1M
1N
0.
b110111001 a
03
b110111001 e
08
1;
1<
1=
1>
1?
1@
0C
0D
0E
04
05
0/
00
b10111001 f
b10111001 b
09
0:
0K
0L
ssend_data O
ssend_data P
ssend_data Q
1d
0`
b10111001 g
b10111001 h
#520
0!
0"
#530
1!
1"
0%
ssend_data R
ssend_data S
ssend_data T
b10111001 i
b10111001 j
0M
0N
0=
0>
1l
0F
0G
16
17
b110100110 e
0?
0@
b110100110 a
1H
1I
1A
1B
11
12
0;
0<
b10100110 f
b10100110 b
sidle O
sidle P
sidle Q
0d
1]
b0 g
b0 h
#540
0!
0"
#550
1!
1"
b11001111 '
1%
0&
sidle R
sidle S
sidle T
b0 i
b0 j
0H
0I
1J
1.
b11001111 a
01
02
13
b11001111 e
06
07
18
0l
0A
0B
1C
1D
1E
14
15
1/
10
b11001111 f
b11001111 b
19
1:
1K
1L
sget_first_data O
sget_first_data P
sget_first_data Q
1_
0]
b11001111 g
b11001111 h
#560
0!
0"
#570
1!
1"
b1110 '
sget_first_data R
sget_first_data S
sget_first_data T
b11001111 i
b11001111 j
b11011101 a
b11011101 e
b11011101 f
b11011101 b
sget_data O
sget_data P
sget_data Q
0_
1`
b11011101 g
b11011101 h
#580
0!
0"
#590
1!
1"
b10100001 '
sget_data R
sget_data S
sget_data T
b11011101 i
b11011101 j
b101111110 a
b101111110 e
b1111110 f
b1111110 b
b1111110 g
b1111110 h
#600
0!
0"
#610
1!
1"
b11110000 '
1&
b1111110 i
b1111110 j
1F
1G
0J
1M
1N
0.
b101101110 a
03
b101101110 e
08
1;
1<
1=
1>
1?
1@
0C
0D
0E
04
05
0/
00
b1101110 f
b1101110 b
09
0:
0K
0L
ssend_data O
ssend_data P
ssend_data Q
1d
0`
b1101110 g
b1101110 h
#620
0!
0"
#630
1!
1"
b100001 '
0&
ssend_data R
ssend_data S
ssend_data T
b1101110 i
b1101110 j
0F
0G
1J
0M
0N
1.
b10001111 a
13
b10001111 e
18
0;
0<
0=
0>
1l
0?
0@
1C
1D
1E
14
15
1/
10
b10001111 f
b10001111 b
19
1:
1K
1L
sget_first_data O
sget_first_data P
sget_first_data Q
1_
0d
b100001 g
b100001 h
#640
0!
0"
#650
1!
1"
b11110000 '
sget_first_data R
sget_first_data S
sget_first_data T
b100001 i
b100001 j
b100010001 a
b100010001 e
0l
b10001 f
b10001 b
sget_data O
sget_data P
sget_data Q
0_
1`
b10001 g
b10001 h
#660
0!
0"
#670
1!
1"
b1111101 '
sget_data R
sget_data S
sget_data T
b10001 i
b10001 j
b10001110 a
b10001110 e
b10001110 f
b10001110 b
b10001110 g
b10001110 h
#680
0!
0"
#690
1!
1"
b10000100 '
b10001110 i
b10001110 j
b100010010 a
b100010010 e
b10010 f
b10010 b
b10010 g
b10010 h
#700
0!
0"
#710
1!
1"
b11101100 '
b10010 i
b10010 j
b11111110 a
b11111110 e
b11111110 f
b11111110 b
b11111110 g
b11111110 h
#720
0!
0"
#730
1!
1"
b11010001 '
1&
b11111110 i
b11111110 j
1F
1G
0J
1M
1N
0.
b111001111 a
03
b111001111 e
08
1;
1<
1=
1>
1?
1@
0C
0D
0E
04
05
0/
00
b11001111 f
b11001111 b
09
0:
0K
0L
ssend_data O
ssend_data P
ssend_data Q
1d
0`
b11001111 g
b11001111 h
#740
0!
0"
#750
1!
1"
0%
ssend_data R
ssend_data S
ssend_data T
b11001111 i
b11001111 j
0M
0N
0=
0>
1l
0F
0G
16
17
b110100000 e
0?
0@
b110100000 a
1H
1I
1A
1B
11
12
0;
0<
b10100000 f
b10100000 b
sidle O
sidle P
sidle Q
0d
1]
b0 g
b0 h
#760
0!
0"
#770
1!
1"
b1000010 '
1%
0&
sidle R
sidle S
sidle T
b0 i
b0 j
0H
0I
1J
1.
b1000010 a
01
02
13
b1000010 e
06
07
18
0l
0A
0B
1C
1D
1E
14
15
1/
10
b1000010 f
b1000010 b
19
1:
1K
1L
sget_first_data O
sget_first_data P
sget_first_data Q
1_
0]
b1000010 g
b1000010 h
#780
0!
0"
#790
1!
1"
0%
sget_first_data R
sget_first_data S
sget_first_data T
b1000010 i
b1000010 j
16
17
b10000100 e
b10000100 a
1H
1I
1A
1B
11
12
0D
0E
04
05
0/
00
b10000100 f
b10000100 b
09
0:
0K
0L
sget_wait O
sget_wait P
sget_wait Q
0_
1c
#800
0!
0"
#810
1!
1"
sget_wait R
sget_wait S
sget_wait T
#820
0!
0"
#830
1!
1"
#840
0!
0"
#850
1!
1"
#860
0!
0"
#870
1!
1"
b11011001 '
1%
0H
0I
b100011011 a
01
02
b100011011 e
06
07
0A
0B
1D
1E
14
15
1/
10
b11011 f
b11011 b
19
1:
1K
1L
sget_data O
sget_data P
sget_data Q
1`
0c
b11011 g
b11011 h
#880
0!
0"
#890
1!
1"
0%
sget_data R
sget_data S
sget_data T
b11011 i
b11011 j
16
17
b11110100 e
b11110100 a
1H
1I
1A
1B
11
12
0D
0E
04
05
0/
00
b11110100 f
b11110100 b
09
0:
0K
0L
sget_wait O
sget_wait P
sget_wait Q
0`
1c
#900
0!
0"
#910
1!
1"
sget_wait R
sget_wait S
sget_wait T
#920
0!
0"
#930
1!
1"
#940
0!
0"
#950
1!
1"
#960
0!
0"
#970
1!
1"
b101010 '
1%
0H
0I
b1000101 a
01
02
b1000101 e
06
07
0A
0B
1D
1E
14
15
1/
10
b1000101 f
b1000101 b
19
1:
1K
1L
sget_data O
sget_data P
sget_data Q
1`
0c
b1000101 g
b1000101 h
#980
0!
0"
#990
1!
1"
0%
sget_data R
sget_data S
sget_data T
b1000101 i
b1000101 j
16
17
b1101111 e
b1101111 a
1H
1I
1A
1B
11
12
0D
0E
04
05
0/
00
b1101111 f
b1101111 b
09
0:
0K
0L
sget_wait O
sget_wait P
sget_wait Q
0`
1c
#1000
0!
0"
#1010
1!
1"
sget_wait R
sget_wait S
sget_wait T
#1020
0!
0"
#1030
1!
1"
#1040
0!
0"
#1050
1!
1"
#1060
0!
0"
#1070
1!
1"
b1010100 '
1%
0H
0I
b10011001 a
01
02
b10011001 e
06
07
0A
0B
1D
1E
14
15
1/
10
b10011001 f
b10011001 b
19
1:
1K
1L
sget_data O
sget_data P
sget_data Q
1`
0c
b10011001 g
b10011001 h
#1080
0!
0"
#1090
1!
1"
0%
sget_data R
sget_data S
sget_data T
b10011001 i
b10011001 j
16
17
b11101101 e
b11101101 a
1H
1I
1A
1B
11
12
0D
0E
04
05
0/
00
b11101101 f
b11101101 b
09
0:
0K
0L
sget_wait O
sget_wait P
sget_wait Q
0`
1c
#1100
0!
0"
#1110
1!
1"
sget_wait R
sget_wait S
sget_wait T
#1120
0!
0"
#1130
1!
1"
#1140
0!
0"
#1150
1!
1"
#1160
0!
0"
#1170
1!
1"
1%
1&
1F
1G
0H
0I
0J
1M
1N
0.
01
02
03
06
07
08
1;
1<
1=
1>
1?
1@
0A
0B
0C
ssend_data O
ssend_data P
ssend_data Q
1d
0c
b11101101 g
b11101101 h
#1180
0!
0"
#1190
1!
1"
0%
ssend_data R
ssend_data S
ssend_data T
b11101101 i
b11101101 j
0M
0N
0=
0>
1l
0F
0G
16
17
b101000001 e
0?
0@
b101000001 a
1H
1I
1A
1B
11
12
0;
0<
b1000001 f
b1000001 b
sidle O
sidle P
sidle Q
0d
1]
b0 g
b0 h
#1200
0!
0"
#1210
1!
1"
sidle R
sidle S
sidle T
b0 i
b0 j
0l
b1010100 e
b1010100 a
b1010100 f
b1010100 b
