unit_tests/reference/test_fsm_sim/test_fsm_sim.vcd
$date 2021-01-31 09:16:29.871753 $end
$timescale 1 ns $end
$scope module UseFSM_tb $end
$var wire 1 ! clk $end
$var wire 1 # rst $end
$var wire 1 % data_in_valid $end
$var wire 1 & data_last $end
$var wire 8 ' data_in $end
$var string 3 ( u_output_port $end
$var string 3 * u1_output_port $end
$var wire 1 , u2_output_port $end
$var wire 1 . u3_output_port $end
$var wire 1 / u4_output_port $end
$var wire 1 1 u5_output_port $end
$var wire 1 3 u6_output_port $end
$var wire 1 4 u7_output_port $end
$var wire 1 6 u8_output_port $end
$var wire 1 8 u9_output_port $end
$var wire 1 9 u10_output_port $end
$var wire 1 ; u11_output_port $end
$var wire 1 = u12_output_port $end
$var wire 1 ? u13_output_port $end
$var wire 1 A u14_output_port $end
$var wire 1 C u15_output_port $end
$var wire 1 D u16_output_port $end
$var wire 1 F u17_output_port $end
$var wire 1 H u18_output_port $end
$var wire 1 J u19_output_port $end
$var wire 1 K u20_output_port $end
$var wire 1 M u21_output_port $end
$var string 3 O my_fsm_next_state $end
$var string 3 S my_fsm_state $end
$var string 3 W u22_output_port $end
$var string 3 X u23_output_port $end
$var string 3 Y u24_output_port $end
$var string 3 Z u25_output_port $end
$var string 3 [ u26_output_port $end
$var string 3 \ u27_output_port $end
$var wire 1 ] u28_output_port $end
$var wire 1 ^ u29_output_port $end
$var wire 1 _ u30_output_port $end
$var wire 1 ` u31_output_port $end
$var wire 1 a u32_output_port $end
$var wire 1 b u33_output_port $end
$var wire 9 c u34_output_port $end
$var wire 8 d u35_output_port $end
$var wire 1 e u36_output_port $end
$var wire 1 f u37_output_port $end
$var wire 9 g u38_output_port $end
$var wire 8 h u39_output_port $end
$var wire 8 i wire_1 $end
$var wire 8 j next_my_sum $end
$var wire 8 k data_out $end
$var wire 8 l wire $end
$var wire 8 m my_sum $end
$var string 3 n u42_output_port $end
$var wire 1 o data_out_valid $end
$scope module my_fsm $end
$var wire 1 " clock_port $end
$var wire 1 $ reset_port $end
$var string 3 ) reset_value $end
$var string 3 + default_state $end
$var wire 1 - input_reset_to_idle $end
$var wire 1 0 input_idle_to_get_first_data $end
$var wire 1 2 input_get_data_to_get_wait $end
$var wire 1 5 input_get_data_to_get_data $end
$var wire 1 7 input_get_wait_to_get_wait $end
$var wire 1 : input_get_wait_to_get_data $end
$var wire 1 < input_get_data_to_send_data $end
$var wire 1 > input_get_wait_to_send_data $end
$var wire 1 @ input_idle_to_send_data $end
$var wire 1 B input_send_data_to_idle $end
$var wire 1 E input_send_data_to_get_first_data $end
$var wire 1 G input_send_data_to_send_data $end
$var wire 1 I input_get_first_data_to_get_wait $end
$var wire 1 L input_get_first_data_to_get_data $end
$var wire 1 N input_get_first_data_to_send_data $end
$var string 3 P next_state $end
$var string 3 Q wire_1 $end
$var string 3 R local_next_state $end
$var string 3 T state $end
$var string 3 U wire $end
$var string 3 V local_state $end
$upscope $end
$upscope $end
$enddefinitions $end
#0
$dumpvars
1!
1"
1#
1$
x%
x&
bx '
sreset (
sreset )
sidle *
sidle +
1,
1-
x.
x/
x0
x1
x2
x3
x4
x5
x6
x7
x8
x9
x:
x;
x<
x=
x>
x?
x@
xA
xB
xC
xD
xE
xF
xG
xH
xI
xJ
xK
xL
xM
xN
sidle O
sidle P
sidle Q
sidle R
s S
s T
s U
s V
sreset W
sidle X
sget_first_data Y
sget_data Z
sget_wait [
ssend_data \
0]
0^
1_
0`
0a
0b
bX c
bX d
0e
0f
bX g
bX h
b0 i
b0 j
bX k
bX l
bX m
ssend_data n
Xo
$end
#20
0!
0"
#30
1!
1"
b0 k
b0 l
b0 m
sreset S
sreset T
sreset U
sreset V
0o
#40
0!
0"
#50
1!
1"
#60
0!
0"
#70
1!
1"
#80
0!
0"
#90
1!
1"
#100
0!
0"
#110
1!
1"
0#
0$
#120
0!
0"
#130
1!
1"
sidle S
sidle T
sidle U
sidle V
#140
0!
0"
#150
1!
1"
#160
0!
0"
#170
1!
1"
#180
0!
0"
#190
1!
1"
#200
0!
0"
#210
1!
1"
b10010101 '
1%
0&
b10010101 g
0;
0<
0=
0>
0?
0@
0A
0B
1C
1.
0F
0G
0H
0I
01
02
1J
13
06
07
0M
0N
b10010101 c
18
1/
10
19
1:
b10010101 h
b10010101 d
1K
1L
1D
1E
14
15
sget_first_data O
sget_first_data P
sget_first_data Q
sget_first_data R
0_
1a
b10010101 i
b10010101 j
#220
0!
0"
#230
1!
1"
b10010101 k
b10010101 l
b10010101 m
sget_first_data S
sget_first_data T
sget_first_data U
sget_first_data V
b100001 '
b10110110 g
b10110110 c
b10110110 h
b10110110 d
sget_data O
sget_data P
sget_data Q
sget_data R
0a
1b
b10110110 i
b10110110 j
#240
0!
0"
#250
1!
1"
b10110110 k
b10110110 l
b10110110 m
sget_data S
sget_data T
sget_data U
sget_data V
b11100110 '
b110011100 g
b110011100 c
b10011100 h
b10011100 d
b10011100 i
b10011100 j
#260
0!
0"
#270
1!
1"
b10011100 k
b10011100 l
b10011100 m
b1011111 '
b11111011 g
b11111011 c
b11111011 h
b11111011 d
b11111011 i
b11111011 j
#280
0!
0"
#290
1!
1"
b11111011 k
b11111011 l
b11111011 m
b111100 '
1&
b100110111 g
1;
1<
1=
1>
1?
1@
0C
0.
1F
1G
0J
03
1M
1N
b100110111 c
08
0/
00
09
0:
b110111 h
b110111 d
0K
0L
0D
0E
04
05
ssend_data O
ssend_data P
ssend_data Q
ssend_data R
1f
0b
b110111 i
b110111 j
#300
0!
0"
#310
1!
1"
b110111 k
b110111 l
b110111 m
ssend_data S
ssend_data T
ssend_data U
ssend_data V
0%
0F
0G
b1110011 g
b1110011 c
0?
0@
1H
1I
11
12
1A
1B
0=
0>
0;
0<
16
17
0M
0N
1o
b1110011 h
b1110011 d
sidle O
sidle P
sidle Q
sidle R
1_
0f
b0 i
b0 j
#320
0!
0"
#330
1!
1"
b0 k
b0 l
b0 m
sidle S
sidle T
sidle U
sidle V
b111100 g
b111100 c
0o
b111100 h
b111100 d
#340
0!
0"
#350
1!
1"
#360
0!
0"
#370
1!
1"
#380
0!
0"
#390
1!
1"
#400
0!
0"
#410
1!
1"
#420
0!
0"
#430
1!
1"
b11101111 '
1%
b11101111 g
1;
1<
1=
1>
1?
1@
0A
0B
1F
1G
0H
0I
01
02
06
07
1M
1N
b11101111 c
b11101111 h
b11101111 d
ssend_data O
ssend_data P
ssend_data Q
ssend_data R
0_
1f
b11101111 i
b11101111 j
#440
0!
0"
#450
1!
1"
b11101111 k
b11101111 l
b11101111 m
ssend_data S
ssend_data T
ssend_data U
ssend_data V
0%
0F
0G
b111011110 g
b111011110 c
0?
0@
1H
1I
11
12
1A
1B
0=
0>
0;
0<
16
17
0M
0N
1o
b11011110 h
b11011110 d
sidle O
sidle P
sidle Q
sidle R
1_
0f
b0 i
b0 j
#460
0!
0"
#470
1!
1"
b0 k
b0 l
b0 m
sidle S
sidle T
sidle U
sidle V
b11111111 '
1%
0&
b11111111 g
0o
0A
0B
1C
1.
0H
0I
01
02
1J
13
06
07
b11111111 c
18
1/
10
19
1:
b11111111 h
b11111111 d
1K
1L
1D
1E
14
15
sget_first_data O
sget_first_data P
sget_first_data Q
sget_first_data R
0_
1a
b11111111 i
b11111111 j
#480
0!
0"
#490
1!
1"
b11111111 k
b11111111 l
b11111111 m
sget_first_data S
sget_first_data T
sget_first_data U
sget_first_data V
b1011111 '
b101011110 g
b101011110 c
b1011110 h
b1011110 d
sget_data O
sget_data P
sget_data Q
sget_data R
0a
1b
b1011110 i
b1011110 j
#500
0!
0"
#510
1!
1"
b1011110 k
b1011110 l
b1011110 m
sget_data S
sget_data T
sget_data U
sget_data V
b101101 '
1&
b10001011 g
1;
1<
1=
1>
1?
1@
0C
0.
1F
1G
0J
03
1M
1N
b10001011 c
08
0/
00
09
0:
b10001011 h
b10001011 d
0K
0L
0D
0E
04
05
ssend_data O
ssend_data P
ssend_data Q
ssend_data R
1f
0b
b10001011 i
b10001011 j
#520
0!
0"
#530
1!
1"
b10001011 k
b10001011 l
b10001011 m
ssend_data S
ssend_data T
ssend_data U
ssend_data V
0%
0F
0G
b10111000 g
b10111000 c
0?
0@
1H
1I
11
12
1A
1B
0=
0>
0;
0<
16
17
0M
0N
1o
b10111000 h
b10111000 d
sidle O
sidle P
sidle Q
sidle R
1_
0f
b0 i
b0 j
#540
0!
0"
#550
1!
1"
b0 k
b0 l
b0 m
sidle S
sidle T
sidle U
sidle V
b1000101 '
1%
0&
b1000101 g
0o
0A
0B
1C
1.
0H
0I
01
02
1J
13
06
07
b1000101 c
18
1/
10
19
1:
b1000101 h
b1000101 d
1K
1L
1D
1E
14
15
sget_first_data O
sget_first_data P
sget_first_data Q
sget_first_data R
0_
1a
b1000101 i
b1000101 j
#560
0!
0"
#570
1!
1"
b1000101 k
b1000101 l
b1000101 m
sget_first_data S
sget_first_data T
sget_first_data U
sget_first_data V
b1100011 '
b10101000 g
b10101000 c
b10101000 h
b10101000 d
sget_data O
sget_data P
sget_data Q
sget_data R
0a
1b
b10101000 i
b10101000 j
#580
0!
0"
#590
1!
1"
b10101000 k
b10101000 l
b10101000 m
sget_data S
sget_data T
sget_data U
sget_data V
b10010100 '
b100111100 g
b100111100 c
b111100 h
b111100 d
b111100 i
b111100 j
#600
0!
0"
#610
1!
1"
b111100 k
b111100 l
b111100 m
b1111100 '
1&
b10111000 g
1;
1<
1=
1>
1?
1@
0C
0.
1F
1G
0J
03
1M
1N
b10111000 c
08
0/
00
09
0:
b10111000 h
b10111000 d
0K
0L
0D
0E
04
05
ssend_data O
ssend_data P
ssend_data Q
ssend_data R
1f
0b
b10111000 i
b10111000 j
#620
0!
0"
#630
1!
1"
b10111000 k
b10111000 l
b10111000 m
ssend_data S
ssend_data T
ssend_data U
ssend_data V
b100001 '
0&
b11011001 g
0;
0<
0=
0>
1o
0?
0@
1C
1.
0F
0G
1J
13
0M
0N
b11011001 c
18
1/
10
19
1:
b11011001 h
b11011001 d
1K
1L
1D
1E
14
15
sget_first_data O
sget_first_data P
sget_first_data Q
sget_first_data R
1a
0f
b100001 i
b100001 j
#640
0!
0"
#650
1!
1"
b100001 k
b100001 l
b100001 m
sget_first_data S
sget_first_data T
sget_first_data U
sget_first_data V
b10000 '
b110001 g
0o
b110001 c
b110001 h
b110001 d
sget_data O
sget_data P
sget_data Q
sget_data R
0a
1b
b110001 i
b110001 j
#660
0!
0"
#670
1!
1"
b110001 k
b110001 l
b110001 m
sget_data S
sget_data T
sget_data U
sget_data V
b1110 '
b111111 g
b111111 c
b111111 h
b111111 d
b111111 i
b111111 j
#680
0!
0"
#690
1!
1"
b111111 k
b111111 l
b111111 m
b10001100 '
b11001011 g
b11001011 c
b11001011 h
b11001011 d
b11001011 i
b11001011 j
#700
0!
0"
#710
1!
1"
b11001011 k
b11001011 l
b11001011 m
b10010000 '
b101011011 g
b101011011 c
b1011011 h
b1011011 d
b1011011 i
b1011011 j
#720
0!
0"
#730
1!
1"
b1011011 k
b1011011 l
b1011011 m
b1101001 '
1&
b11000100 g
1;
1<
1=
1>
1?
1@
0C
0.
1F
1G
0J
03
1M
1N
b11000100 c
08
0/
00
09
0:
b11000100 h
b11000100 d
0K
0L
0D
0E
04
05
ssend_data O
ssend_data P
ssend_data Q
ssend_data R
1f
0b
b11000100 i
b11000100 j
#740
0!
0"
#750
1!
1"
b11000100 k
b11000100 l
b11000100 m
ssend_data S
ssend_data T
ssend_data U
ssend_data V
0%
0F
0G
b100101101 g
b100101101 c
0?
0@
1H
1I
11
12
1A
1B
0=
0>
0;
0<
16
17
0M
0N
1o
b101101 h
b101101 d
sidle O
sidle P
sidle Q
sidle R
1_
0f
b0 i
b0 j
#760
0!
0"
#770
1!
1"
b0 k
b0 l
b0 m
sidle S
sidle T
sidle U
sidle V
b110010 '
1%
0&
b110010 g
0o
0A
0B
1C
1.
0H
0I
01
02
1J
13
06
07
b110010 c
18
1/
10
19
1:
b110010 h
b110010 d
1K
1L
1D
1E
14
15
sget_first_data O
sget_first_data P
sget_first_data Q
sget_first_data R
0_
1a
b110010 i
b110010 j
#780
0!
0"
#790
1!
1"
b110010 k
b110010 l
b110010 m
sget_first_data S
sget_first_data T
sget_first_data U
sget_first_data V
0%
b1100100 g
b1100100 c
1H
1I
11
12
1A
1B
16
17
0/
00
09
0:
b1100100 h
b1100100 d
0K
0L
0D
0E
04
05
sget_wait O
sget_wait P
sget_wait Q
sget_wait R
1e
0a
#800
0!
0"
#810
1!
1"
sget_wait S
sget_wait T
sget_wait U
sget_wait V
#820
0!
0"
#830
1!
1"
#840
0!
0"
#850
1!
1"
#860
0!
0"
#870
1!
1"
b111011 '
1%
b1101101 g
0A
0B
0H
0I
01
02
06
07
b1101101 c
1/
10
19
1:
b1101101 h
b1101101 d
1K
1L
1D
1E
14
15
sget_data O
sget_data P
sget_data Q
sget_data R
0e
1b
b1101101 i
b1101101 j
#880
0!
0"
#890
1!
1"
b1101101 k
b1101101 l
b1101101 m
sget_data S
sget_data T
sget_data U
sget_data V
0%
b10101000 g
b10101000 c
1H
1I
11
12
1A
1B
16
17
0/
00
09
0:
b10101000 h
b10101000 d
0K
0L
0D
0E
04
05
sget_wait O
sget_wait P
sget_wait Q
sget_wait R
1e
0b
#900
0!
0"
#910
1!
1"
sget_wait S
sget_wait T
sget_wait U
sget_wait V
#920
0!
0"
#930
1!
1"
#940
0!
0"
#950
1!
1"
#960
0!
0"
#970
1!
1"
b10111011 '
1%
b100101000 g
0A
0B
0H
0I
01
02
06
07
b100101000 c
1/
10
19
1:
b101000 h
b101000 d
1K
1L
1D
1E
14
15
sget_data O
sget_data P
sget_data Q
sget_data R
0e
1b
b101000 i
b101000 j
#980
0!
0"
#990
1!
1"
b101000 k
b101000 l
b101000 m
sget_data S
sget_data T
sget_data U
sget_data V
0%
b11100011 g
b11100011 c
1H
1I
11
12
1A
1B
16
17
0/
00
09
0:
b11100011 h
b11100011 d
0K
0L
0D
0E
04
05
sget_wait O
sget_wait P
sget_wait Q
sget_wait R
1e
0b
#1000
0!
0"
#1010
1!
1"
sget_wait S
sget_wait T
sget_wait U
sget_wait V
#1020
0!
0"
#1030
1!
1"
#1040
0!
0"
#1050
1!
1"
#1060
0!
0"
#1070
1!
1"
b10111000 '
1%
b11100000 g
0A
0B
0H
0I
01
02
06
07
b11100000 c
1/
10
19
1:
b11100000 h
b11100000 d
1K
1L
1D
1E
14
15
sget_data O
sget_data P
sget_data Q
sget_data R
0e
1b
b11100000 i
b11100000 j
#1080
0!
0"
#1090
1!
1"
b11100000 k
b11100000 l
b11100000 m
sget_data S
sget_data T
sget_data U
sget_data V
0%
b110011000 g
b110011000 c
1H
1I
11
12
1A
1B
16
17
0/
00
09
0:
b10011000 h
b10011000 d
0K
0L
0D
0E
04
05
sget_wait O
sget_wait P
sget_wait Q
sget_wait R
1e
0b
#1100
0!
0"
#1110
1!
1"
sget_wait S
sget_wait T
sget_wait U
sget_wait V
#1120
0!
0"
#1130
1!
1"
#1140
0!
0"
#1150
1!
1"
#1160
0!
0"
#1170
1!
1"
b10010000 '
1%
1&
b101110000 g
1;
1<
1=
1>
1?
1@
0A
0B
0C
0.
1F
1G
0H
0I
01
02
0J
03
06
07
1M
1N
b101110000 c
08
b1110000 h
b1110000 d
ssend_data O
ssend_data P
ssend_data Q
ssend_data R
0e
1f
b1110000 i
b1110000 j
#1180
0!
0"
#1190
1!
1"
b1110000 k
b1110000 l
b1110000 m
ssend_data S
ssend_data T
ssend_data U
ssend_data V
0%
0F
0G
b100000000 g
b100000000 c
0?
0@
1H
1I
11
12
1A
1B
0=
0>
0;
0<
16
17
0M
0N
1o
b0 h
b0 d
sidle O
sidle P
sidle Q
sidle R
1_
0f
b0 i
b0 j
#1200
0!
0"
#1210
1!
1"
b0 k
b0 l
b0 m
sidle S
sidle T
sidle U
sidle V
b10010000 g
b10010000 c
0o
b10010000 h
b10010000 d
