unit_tests/reference/test_fsm_sim/test_fsm_sim.vcd
$date 2021-02-04 09:27:29.123998 $end
$timescale 1 ns $end
$scope module UseFSM_tb $end
$var wire 1 ! clk $end
$var wire 1 # rst $end
$var wire 1 % data_in_valid $end
$var wire 1 & data_last $end
$var wire 8 ' data_in $end
$var string 3 ( u_output_port $end
$var string 3 * u1_output_port $end
$var wire 1 , u2_output_port $end
$var wire 1 . u3_output_port $end
$var wire 1 / u4_output_port $end
$var wire 1 1 u5_output_port $end
$var wire 1 3 u6_output_port $end
$var wire 1 4 u7_output_port $end
$var wire 1 6 u8_output_port $end
$var wire 1 8 u9_output_port $end
$var wire 1 9 u10_output_port $end
$var wire 1 ; u11_output_port $end
$var wire 1 = u12_output_port $end
$var wire 1 ? u13_output_port $end
$var wire 1 A u14_output_port $end
$var wire 1 C u15_output_port $end
$var wire 1 D u16_output_port $end
$var wire 1 F u17_output_port $end
$var wire 1 H u18_output_port $end
$var wire 1 J u19_output_port $end
$var wire 1 K u20_output_port $end
$var wire 1 M u21_output_port $end
$var string 3 O my_fsm_next_state $end
$var string 3 R my_fsm_state $end
$var string 3 U u22_output_port $end
$var string 3 V u23_output_port $end
$var string 3 W u24_output_port $end
$var string 3 X u25_output_port $end
$var string 3 Y u26_output_port $end
$var string 3 Z u27_output_port $end
$var wire 1 [ u28_output_port $end
$var wire 1 \ u29_output_port $end
$var wire 1 ] u30_output_port $end
$var wire 1 ^ u31_output_port $end
$var wire 1 _ u32_output_port $end
$var wire 1 ` u33_output_port $end
$var wire 9 a u34_output_port $end
$var wire 8 b u35_output_port $end
$var wire 1 c u36_output_port $end
$var wire 1 d u37_output_port $end
$var wire 9 e u38_output_port $end
$var wire 8 f u39_output_port $end
$var wire 8 g unnamed_wire_1 $end
$var wire 8 h next_my_sum $end
$var wire 8 i data_out $end
$var wire 8 j my_sum $end
$var string 3 k u42_output_port $end
$var wire 1 l data_out_valid $end
$scope module my_fsm $end
$var wire 1 " clock_port $end
$var wire 1 $ reset_port $end
$var string 3 ) reset_value $end
$var string 3 + default_state $end
$var wire 1 - input_reset_to_idle $end
$var wire 1 0 input_idle_to_get_first_data $end
$var wire 1 2 input_get_data_to_get_wait $end
$var wire 1 5 input_get_data_to_get_data $end
$var wire 1 7 input_get_wait_to_get_wait $end
$var wire 1 : input_get_wait_to_get_data $end
$var wire 1 < input_get_data_to_send_data $end
$var wire 1 > input_get_wait_to_send_data $end
$var wire 1 @ input_idle_to_send_data $end
$var wire 1 B input_send_data_to_idle $end
$var wire 1 E input_send_data_to_get_first_data $end
$var wire 1 G input_send_data_to_send_data $end
$var wire 1 I input_get_first_data_to_get_wait $end
$var wire 1 L input_get_first_data_to_get_data $end
$var wire 1 N input_get_first_data_to_send_data $end
$var string 3 P next_state $end
$var string 3 Q local_next_state $end
$var string 3 S state $end
$var string 3 T local_state $end
$upscope $end
$upscope $end
$enddefinitions $end
#0
$dumpvars
1!
1"
1#
1$
x%
x&
bx '
sreset (
sreset )
sidle *
sidle +
1,
1-
x.
x/
x0
x1
x2
x3
x4
x5
x6
x7
x8
x9
x:
x;
x<
x=
x>
x?
x@
xA
xB
xC
xD
xE
xF
xG
xH
xI
xJ
xK
xL
xM
xN
sidle O
sidle P
sidle Q
s R
s S
s T
sreset U
sidle V
sget_first_data W
sget_data X
sget_wait Y
ssend_data Z
0[
0\
1]
0^
0_
0`
bX a
bX b
0c
0d
bX e
bX f
b0 g
b0 h
bX i
bX j
ssend_data k
Xl
$end
#20
0!
0"
#30
1!
1"
sreset R
sreset S
sreset T
b0 i
b0 j
0l
#40
0!
0"
#50
1!
1"
#60
0!
0"
#70
1!
1"
#80
0!
0"
#90
1!
1"
#100
0!
0"
#110
1!
1"
0#
0$
#120
0!
0"
#130
1!
1"
sidle R
sidle S
sidle T
#140
0!
0"
#150
1!
1"
#160
0!
0"
#170
1!
1"
#180
0!
0"
#190
1!
1"
#200
0!
0"
#210
1!
1"
b10000100 '
1%
0&
0H
0I
0;
0<
1J
0=
0>
0?
0@
0M
0N
0A
0B
b10000100 a
b10000100 e
1.
01
02
13
1C
06
07
0F
0G
18
b10000100 f
19
1:
1/
10
b10000100 b
14
15
1D
1E
1K
1L
sget_first_data O
sget_first_data P
sget_first_data Q
0]
1_
b10000100 g
b10000100 h
#220
0!
0"
#230
1!
1"
b110010 '
sget_first_data R
sget_first_data S
sget_first_data T
b10000100 i
b10000100 j
b10110110 a
b10110110 e
b10110110 f
b10110110 b
sget_data O
sget_data P
sget_data Q
0_
1`
b10110110 g
b10110110 h
#240
0!
0"
#250
1!
1"
b10011100 '
sget_data R
sget_data S
sget_data T
b10110110 i
b10110110 j
b101010010 a
b101010010 e
b1010010 f
b1010010 b
b1010010 g
b1010010 h
#260
0!
0"
#270
1!
1"
b10010111 '
b1010010 i
b1010010 j
b11101001 a
b11101001 e
b11101001 f
b11101001 b
b11101001 g
b11101001 h
#280
0!
0"
#290
1!
1"
b10111101 '
1&
b11101001 i
b11101001 j
1;
1<
0J
1=
1>
1?
1@
1M
1N
b110100110 a
b110100110 e
0.
03
0C
1F
1G
08
b10100110 f
09
0:
0/
00
b10100110 b
04
05
0D
0E
0K
0L
ssend_data O
ssend_data P
ssend_data Q
1d
0`
b10100110 g
b10100110 h
#300
0!
0"
#310
1!
1"
0%
ssend_data R
ssend_data S
ssend_data T
b10100110 i
b10100110 j
1H
1I
0;
0<
11
12
0=
0>
16
17
b101100011 a
0M
0N
0?
0@
1l
0F
0G
b101100011 e
1A
1B
b1100011 f
b1100011 b
sidle O
sidle P
sidle Q
1]
0d
b0 g
b0 h
#320
0!
0"
#330
1!
1"
sidle R
sidle S
sidle T
b0 i
b0 j
0l
b10111101 e
b10111101 a
b10111101 f
b10111101 b
#340
0!
0"
#350
1!
1"
#360
0!
0"
#370
1!
1"
#380
0!
0"
#390
1!
1"
#400
0!
0"
#410
1!
1"
#420
0!
0"
#430
1!
1"
b1010010 '
1%
0H
0I
1;
1<
1=
1>
1?
1@
1M
1N
0A
0B
b1010010 a
b1010010 e
01
02
06
07
1F
1G
b1010010 f
b1010010 b
ssend_data O
ssend_data P
ssend_data Q
0]
1d
b1010010 g
b1010010 h
#440
0!
0"
#450
1!
1"
0%
ssend_data R
ssend_data S
ssend_data T
b1010010 i
b1010010 j
1H
1I
0;
0<
11
12
0=
0>
16
17
b10100100 a
0M
0N
0?
0@
1l
0F
0G
b10100100 e
1A
1B
b10100100 f
b10100100 b
sidle O
sidle P
sidle Q
1]
0d
b0 g
b0 h
#460
0!
0"
#470
1!
1"
b11000101 '
1%
0&
sidle R
sidle S
sidle T
b0 i
b0 j
0H
0I
1J
0A
0B
b11000101 a
b11000101 e
1.
01
02
0l
13
1C
06
07
18
b11000101 f
19
1:
1/
10
b11000101 b
14
15
1D
1E
1K
1L
sget_first_data O
sget_first_data P
sget_first_data Q
0]
1_
b11000101 g
b11000101 h
#480
0!
0"
#490
1!
1"
b11 '
sget_first_data R
sget_first_data S
sget_first_data T
b11000101 i
b11000101 j
b11001000 a
b11001000 e
b11001000 f
b11001000 b
sget_data O
sget_data P
sget_data Q
0_
1`
b11001000 g
b11001000 h
#500
0!
0"
#510
1!
1"
b10000011 '
1&
sget_data R
sget_data S
sget_data T
b11001000 i
b11001000 j
1;
1<
0J
1=
1>
1?
1@
1M
1N
b101001011 a
b101001011 e
0.
03
0C
1F
1G
08
b1001011 f
09
0:
0/
00
b1001011 b
04
05
0D
0E
0K
0L
ssend_data O
ssend_data P
ssend_data Q
1d
0`
b1001011 g
b1001011 h
#520
0!
0"
#530
1!
1"
0%
ssend_data R
ssend_data S
ssend_data T
b1001011 i
b1001011 j
1H
1I
0;
0<
11
12
0=
0>
16
17
b11001110 a
0M
0N
0?
0@
1l
0F
0G
b11001110 e
1A
1B
b11001110 f
b11001110 b
sidle O
sidle P
sidle Q
1]
0d
b0 g
b0 h
#540
0!
0"
#550
1!
1"
b100001 '
1%
0&
sidle R
sidle S
sidle T
b0 i
b0 j
0H
0I
1J
0A
0B
b100001 a
b100001 e
1.
01
02
0l
13
1C
06
07
18
b100001 f
19
1:
1/
10
b100001 b
14
15
1D
1E
1K
1L
sget_first_data O
sget_first_data P
sget_first_data Q
0]
1_
b100001 g
b100001 h
#560
0!
0"
#570
1!
1"
b1111100 '
sget_first_data R
sget_first_data S
sget_first_data T
b100001 i
b100001 j
b10011101 a
b10011101 e
b10011101 f
b10011101 b
sget_data O
sget_data P
sget_data Q
0_
1`
b10011101 g
b10011101 h
#580
0!
0"
#590
1!
1"
sget_data R
sget_data S
sget_data T
b10011101 i
b10011101 j
b100011001 a
b100011001 e
b11001 f
b11001 b
b11001 g
b11001 h
#600
0!
0"
#610
1!
1"
b111110 '
1&
b11001 i
b11001 j
1;
1<
0J
1=
1>
1?
1@
1M
1N
b1010111 a
b1010111 e
0.
03
0C
1F
1G
08
b1010111 f
09
0:
0/
00
b1010111 b
04
05
0D
0E
0K
0L
ssend_data O
ssend_data P
ssend_data Q
1d
0`
b1010111 g
b1010111 h
#620
0!
0"
#630
1!
1"
b100001 '
0&
ssend_data R
ssend_data S
ssend_data T
b1010111 i
b1010111 j
0;
0<
1J
0=
0>
0?
0@
0M
0N
b1111000 a
b1111000 e
1.
1l
13
1C
0F
0G
18
b1111000 f
19
1:
1/
10
b1111000 b
14
15
1D
1E
1K
1L
sget_first_data O
sget_first_data P
sget_first_data Q
1_
0d
b100001 g
b100001 h
#640
0!
0"
#650
1!
1"
b11011001 '
sget_first_data R
sget_first_data S
sget_first_data T
b100001 i
b100001 j
b11111010 a
b11111010 e
0l
b11111010 f
b11111010 b
sget_data O
sget_data P
sget_data Q
0_
1`
b11111010 g
b11111010 h
#660
0!
0"
#670
1!
1"
b1011011 '
sget_data R
sget_data S
sget_data T
b11111010 i
b11111010 j
b101010101 a
b101010101 e
b1010101 f
b1010101 b
b1010101 g
b1010101 h
#680
0!
0"
#690
1!
1"
b10011010 '
b1010101 i
b1010101 j
b11101111 a
b11101111 e
b11101111 f
b11101111 b
b11101111 g
b11101111 h
#700
0!
0"
#710
1!
1"
b1101110 '
b11101111 i
b11101111 j
b101011101 a
b101011101 e
b1011101 f
b1011101 b
b1011101 g
b1011101 h
#720
0!
0"
#730
1!
1"
b10010110 '
1&
b1011101 i
b1011101 j
1;
1<
0J
1=
1>
1?
1@
1M
1N
b11110011 a
b11110011 e
0.
03
0C
1F
1G
08
b11110011 f
09
0:
0/
00
b11110011 b
04
05
0D
0E
0K
0L
ssend_data O
ssend_data P
ssend_data Q
1d
0`
b11110011 g
b11110011 h
#740
0!
0"
#750
1!
1"
0%
ssend_data R
ssend_data S
ssend_data T
b11110011 i
b11110011 j
1H
1I
0;
0<
11
12
0=
0>
16
17
b110001001 a
0M
0N
0?
0@
1l
0F
0G
b110001001 e
1A
1B
b10001001 f
b10001001 b
sidle O
sidle P
sidle Q
1]
0d
b0 g
b0 h
#760
0!
0"
#770
1!
1"
b10000011 '
1%
0&
sidle R
sidle S
sidle T
b0 i
b0 j
0H
0I
1J
0A
0B
b10000011 a
b10000011 e
1.
01
02
0l
13
1C
06
07
18
b10000011 f
19
1:
1/
10
b10000011 b
14
15
1D
1E
1K
1L
sget_first_data O
sget_first_data P
sget_first_data Q
0]
1_
b10000011 g
b10000011 h
#780
0!
0"
#790
1!
1"
0%
sget_first_data R
sget_first_data S
sget_first_data T
b10000011 i
b10000011 j
1H
1I
11
12
16
17
b100000110 a
b100000110 e
1A
1B
b110 f
09
0:
0/
00
b110 b
04
05
0D
0E
0K
0L
sget_wait O
sget_wait P
sget_wait Q
1c
0_
#800
0!
0"
#810
1!
1"
sget_wait R
sget_wait S
sget_wait T
#820
0!
0"
#830
1!
1"
#840
0!
0"
#850
1!
1"
#860
0!
0"
#870
1!
1"
b10101000 '
1%
0H
0I
0A
0B
b100101011 a
b100101011 e
01
02
06
07
b101011 f
19
1:
1/
10
b101011 b
14
15
1D
1E
1K
1L
sget_data O
sget_data P
sget_data Q
0c
1`
b101011 g
b101011 h
#880
0!
0"
#890
1!
1"
0%
sget_data R
sget_data S
sget_data T
b101011 i
b101011 j
1H
1I
11
12
16
17
b11010011 a
b11010011 e
1A
1B
b11010011 f
09
0:
0/
00
b11010011 b
04
05
0D
0E
0K
0L
sget_wait O
sget_wait P
sget_wait Q
1c
0`
#900
0!
0"
#910
1!
1"
sget_wait R
sget_wait S
sget_wait T
#920
0!
0"
#930
1!
1"
#940
0!
0"
#950
1!
1"
#960
0!
0"
#970
1!
1"
b10111111 '
1%
0H
0I
0A
0B
b11101010 a
b11101010 e
01
02
06
07
b11101010 f
19
1:
1/
10
b11101010 b
14
15
1D
1E
1K
1L
sget_data O
sget_data P
sget_data Q
0c
1`
b11101010 g
b11101010 h
#980
0!
0"
#990
1!
1"
0%
sget_data R
sget_data S
sget_data T
b11101010 i
b11101010 j
1H
1I
11
12
16
17
b110101001 a
b110101001 e
1A
1B
b10101001 f
09
0:
0/
00
b10101001 b
04
05
0D
0E
0K
0L
sget_wait O
sget_wait P
sget_wait Q
1c
0`
#1000
0!
0"
#1010
1!
1"
sget_wait R
sget_wait S
sget_wait T
#1020
0!
0"
#1030
1!
1"
#1040
0!
0"
#1050
1!
1"
#1060
0!
0"
#1070
1!
1"
b11101001 '
1%
0H
0I
0A
0B
b111010011 a
b111010011 e
01
02
06
07
b11010011 f
19
1:
1/
10
b11010011 b
14
15
1D
1E
1K
1L
sget_data O
sget_data P
sget_data Q
0c
1`
b11010011 g
b11010011 h
#1080
0!
0"
#1090
1!
1"
0%
sget_data R
sget_data S
sget_data T
b11010011 i
b11010011 j
1H
1I
11
12
16
17
b110111100 a
b110111100 e
1A
1B
b10111100 f
09
0:
0/
00
b10111100 b
04
05
0D
0E
0K
0L
sget_wait O
sget_wait P
sget_wait Q
1c
0`
#1100
0!
0"
#1110
1!
1"
sget_wait R
sget_wait S
sget_wait T
#1120
0!
0"
#1130
1!
1"
#1140
0!
0"
#1150
1!
1"
#1160
0!
0"
#1170
1!
1"
b1011110 '
1%
1&
0H
0I
1;
1<
0J
1=
1>
1?
1@
1M
1N
0A
0B
b100110001 a
b100110001 e
0.
01
02
03
0C
06
07
1F
1G
08
b110001 f
b110001 b
ssend_data O
ssend_data P
ssend_data Q
0c
1d
b110001 g
b110001 h
#1180
0!
0"
#1190
1!
1"
0%
ssend_data R
ssend_data S
ssend_data T
b110001 i
b110001 j
1H
1I
0;
0<
11
12
0=
0>
16
17
b10001111 a
0M
0N
0?
0@
1l
0F
0G
b10001111 e
1A
1B
b10001111 f
b10001111 b
sidle O
sidle P
sidle Q
1]
0d
b0 g
b0 h
#1200
0!
0"
#1210
1!
1"
sidle R
sidle S
sidle T
b0 i
b0 j
0l
b1011110 e
b1011110 a
b1011110 f
b1011110 b
