unit_tests/reference/test_sim_counter/test_sim_counter.vcd
$date 2021-01-31 09:16:37.820244 $end
$timescale 1 ns $end
$scope module top $end
$var wire 1 ! clock $end
$var wire 1 " reset $end
$var wire 1 # u_output_port $end
$var wire 5 $ u1_output_port $end
$var wire 4 % u2_output_port $end
$var wire 4 & count $end
$upscope $end
$enddefinitions $end
#0
$dumpvars
x!
x"
1#
bX $
bX %
bx &
$end
#10
0!
1"
bX &
#20
1!
b0 &
b1 $
b1 %
#30
0!
#40
1!
#50
0!
#60
1!
#70
0!
#80
1!
#90
0!
#100
1!
#110
0"
0!
#120
1!
b1 &
b10 $
b10 %
#130
0!
#140
1!
b10 &
b11 $
b11 %
#150
0!
#160
1!
b11 &
b100 $
b100 %
#170
0!
#180
1!
b100 &
b101 $
b101 %
#190
0!
#200
1!
b101 &
b110 $
b110 %
#210
0!
#220
1!
b110 &
b111 $
b111 %
#230
0!
#240
1!
b111 &
b1000 $
b1000 %
#250
0!
#260
1!
b1000 &
b1001 $
b1001 %
#270
0!
#280
1!
b1001 &
b1010 $
b1010 %
#290
0!
#300
1!
b1010 &
b1011 $
b1011 %
#310
0!
#320
1!
b1011 &
b1100 $
b1100 %
#330
0!
#340
1!
b1100 &
b1101 $
b1101 %
#350
0!
#360
1!
b1101 &
b1110 $
b1110 %
#370
0!
#380
1!
b1110 &
b1111 $
b1111 %
#390
0!
#400
1!
b1111 &
b10000 $
b0 %
#410
0!
#420
1!
b0 &
b1 $
b1 %
#430
0!
#440
1!
b1 &
b10 $
b10 %
#450
0!
#460
1!
b10 &
b11 $
b11 %
#470
0!
#480
1!
b11 &
b100 $
b100 %
#490
0!
#500
1!
b100 &
b101 $
b101 %
#510
0!
#520
1!
b101 &
b110 $
b110 %
#530
0!
#540
1!
b110 &
b111 $
b111 %
#550
0!
#560
1!
b111 &
b1000 $
b1000 %
#570
0!
#580
1!
b1000 &
b1001 $
b1001 %
#590
0!
#600
1!
b1001 &
b1010 $
b1010 %
#610
0!
#620
1!
b1010 &
b1011 $
b1011 %
#630
0!
#640
1!
b1011 &
b1100 $
b1100 %
#650
0!
#660
1!
b1100 &
b1101 $
b1101 %
#670
0!
#680
1!
b1101 &
b1110 $
b1110 %
#690
0!
#700
1!
b1110 &
b1111 $
b1111 %
#710
0!
#720
1!
b1111 &
b10000 $
b0 %
#730
0!
#740
1!
b0 &
b1 $
b1 %
#750
0!
#760
1!
b1 &
b10 $
b10 %
#770
0!
#780
1!
b10 &
b11 $
b11 %
#790
0!
#800
1!
b11 &
b100 $
b100 %
#810
0!
#820
1!
b100 &
b101 $
b101 %
#830
0!
#840
1!
b101 &
b110 $
b110 %
#850
0!
#860
1!
b110 &
b111 $
b111 %
#870
0!
#880
1!
b111 &
b1000 $
b1000 %
#890
0!
#900
1!
b1000 &
b1001 $
b1001 %
#910
0!
#920
1!
b1001 &
b1010 $
b1010 %
#930
0!
#940
1!
b1010 &
b1011 $
b1011 %
#950
0!
#960
1!
b1011 &
b1100 $
b1100 %
#970
0!
#980
1!
b1100 &
b1101 $
b1101 %
#990
0!
#1000
1!
b1101 &
b1110 $
b1110 %
#1010
0!
#1020
1!
b1110 &
b1111 $
b1111 %
#1030
0!
#1040
1!
b1111 &
b10000 $
b0 %
#1050
0!
#1060
1!
b0 &
b1 $
b1 %
#1070
0!
#1080
1!
b1 &
b10 $
b10 %
#1090
0!
#1100
1!
b10 &
b11 $
b11 %
